Report on the impact prescribed fire on bird communities in Canada’s National Parks
…
Assuming "longitude" and "latitude" are longitude and latitude, respectively

# Covariates

covs <- burns_fire |>
  left_join(wt_get_projects("ARU") |> select(organization_name, project, project_id), by = "project_id") |>
  select(organization_name, project, project_id, location, location_id, year, sample_type, freq_burned, yrs_since_fire, pf_severity, veg_type) |>
  distinct()

covs |>
  count(organization_name, project, project_id, year)

# A tibble: 26 × 5
   organization_name project                              project_id  year     n
   <chr>             <chr>                                     <int> <dbl> <int>
 1 BNP               Prescribed Burn - Compound Meadows …       2291  2023     2
 2 BNP               Prescribed Burn - Compound Meadows …       2291  2024     4
 3 EINP              Elk Island National Park Forest Bir…        282  2019    96
 4 EINP              Elk Island National Park Forest Bir…        662  2020    96
 5 EINP              Elk Island National Park Forest Bir…        672  2021    96
 6 EINP              Elk Island National Park Forest Bir…       1092  2022    96
 7 EINP              Elk Island National Park Forest Bir…       2021  2023    96
 8 EINP              Elk Island National Park Forest Bir…       2878  2024    94
 9 EINP              Elk Island National Park Forest Bir…       3577  2025    96
10 EINP              Elk Island National Park Grassland …        388  2019    20
# ℹ 16 more rows
…
